survey,token,data_center,regex,parent
SV_0wyuXuaWdEdJpVI,XXXXXXXXXX, mquni.au1, .*, SV_0wyuXuaWdEdJpVI
SV_6xtvNTckiy9wSi2,XXXXXXXXXX, mquni.au1, (?!(Q5\.1_Q5\.1_56|Q5\.2_Q5\.2_56|Q5\.3_Q5\.3_56|Q5\.4_Q5\.4_5|Q5\.5_Q5\.5_55|Q5\.6_Q5\.6_56|Q5\.7_Q5\.7_55|Q5\.8_Q5\.8_55|Q5\.9_Q5\.9_55|Q5\.10_Q5\.10_55|Q5\.11_Q5\.11_55|Q5\.12_Q5\.12_55))Q5.*, SV_6xtvNTckiy9wSi2
SV_2i51uu8Vidq2zC5,D3216VDVSCvF11XV5OgjgE1qhAPpUumRmY72XbfO, mqedu, .*, SV_2i51uu8Vidq2zC5
SV_bj7IR4LM4DmAlme, XXXXXXXXXX, mquni.au1, (?!(Q5\.1_Q5\.1_56|Q5\.2_Q5\.2_56|Q5\.3_Q5\.3_56|Q5\.4_Q5\.4_5|Q5\.5_Q5\.5_55|Q5\.6_Q5\.6_56|Q5\.7_Q5\.7_55|Q5\.8_Q5\.8_55|Q5\.9_Q5\.9_55|Q5\.10_Q5\.10_55|Q5\.11_Q5\.11_55|Q5\.12_Q5\.12_55))Q5.*, SV_bj7IR4LM4DmAlme
SV_9QWjFfcybwMqKTs, XXXXXXXXXX, mquni.au1, (?!(Q5\.1_Q5\.1_56|Q5\.2_Q5\.2_56|Q5\.3_Q5\.3_56|Q5\.4_Q5\.4_5|Q5\.5_Q5\.5_55|Q5\.6_Q5\.6_56|Q5\.7_Q5\.7_55|Q5\.8_Q5\.8_55|Q5\.9_Q5\.9_55|Q5\.10_Q5\.10_55|Q5\.11_Q5\.11_55|Q5\.12_Q5\.12_55))Q5.*, SV_bj7IR4LM4DmAlme